Division,WeightClassKg,Place,Name,Team,BodyweightKg,Best3SquatKg,Best3BenchKg,Best3DeadliftKg,TotalKg,Equipment,Event,Sex
Boys,51.71,1,Rushi Patel,College Station,50.8,131.54,61.23,136.08,328.85,Single-ply,SBD,M
Boys,51.71,2,Isiah Reza,College Station,50.71,127.01,56.7,129.27,312.98,Single-ply,SBD,M
Boys,51.71,3,Therrance Soto,San Marcos,50.98,97.52,61.23,120.2,278.96,Single-ply,SBD,M
Boys,51.71,4,Tristen Aleksines,Hutto,50.71,88.45,54.43,113.4,256.28,Single-ply,SBD,M
Boys,51.71,5,Josh Tiha,Manor,49.62,61.23,47.63,90.72,199.58,Single-ply,SBD,M
Boys,51.71,DQ,Joel Berrum,Austin Lake Travis,50.8,61.23,,,,Single-ply,SBD,M
Boys,55.79,1,Davion Aldridge,Hutto,55.79,176.9,99.79,210.92,487.61,Single-ply,SBD,M
Boys,55.79,2,Noah Pachicano,Taylor,52.62,136.08,86.18,156.49,378.75,Single-ply,SBD,M
Boys,55.79,3,Christian Lopez #8,Manor,53.16,127.01,83.91,149.69,360.61,Single-ply,SBD,M
Boys,55.79,4,Dylan Diestel,Rockdale,54.88,131.54,68.04,149.69,349.27,Single-ply,SBD,M
Boys,55.79,5,David Turner,Hutto,52.89,111.13,70.31,115.67,297.1,Single-ply,SBD,M
Boys,55.79,6,Elijah Hubbard,Elgin,54.25,102.06,56.7,113.4,272.16,Single-ply,SBD,M
Boys,59.87,1,Isaiah Mesa,Taylor,59.6,183.7,129.27,208.65,521.63,Single-ply,SBD,M
Boys,59.87,2,Billy Pearson,Pflugerville Connally,56.34,127.01,68.04,163.29,358.34,Single-ply,SBD,M
Boys,59.87,3,Kade Fly,Hutto,59.69,136.08,68.04,147.42,351.53,Single-ply,SBD,M
Boys,59.87,4,Matthew Reiff,Pflugerville,59.33,111.13,74.84,131.54,317.51,Single-ply,SBD,M
Boys,59.87,5,Danny Doan,Pflugerville Connally,57.97,122.47,77.11,113.4,312.98,Single-ply,SBD,M
Boys,59.87,6,Christian Alvarez #1,San Marcos,58.51,111.13,68.04,131.54,310.71,Single-ply,SBD,M
Boys,59.87,7,Nathan Newlin,Rockdale,56.7,102.06,61.23,102.06,265.35,Single-ply,SBD,M
Boys,59.87,DQ,Estafano Lopez,Waco University,59.87,,,,,Single-ply,SBD,M
Boys,67.13,1,Lorenzo Sanchez,Taylor,65.32,208.65,124.74,229.06,562.45,Single-ply,SBD,M
Boys,67.13,2,Kenny Miller,Manor,66.68,204.12,117.93,215.46,537.51,Single-ply,SBD,M
Boys,67.13,3,JT Abshire,College Station,65.95,188.24,92.99,183.7,464.93,Single-ply,SBD,M
Boys,67.13,4,Dereon Kizzie,Pflugerville Connally,62.51,154.22,102.06,185.97,442.25,Single-ply,SBD,M
Boys,67.13,5,Jesse Barron,Hutto,62.23,163.29,83.91,190.51,437.72,Single-ply,SBD,M
Boys,67.13,6,Matthew Kocian,Taylor,66.41,170.1,92.99,172.37,435.45,Single-ply,SBD,M
Boys,67.13,7,Daveon Douglas,Pflugerville,67.04,142.88,92.99,142.88,378.75,Single-ply,SBD,M
Boys,67.13,8,Chase Gibson,College Station A&M; Cons,63.96,138.35,81.65,154.22,374.21,Single-ply,SBD,M
Boys,67.13,9,Cole Lunsford,Pflugerville Hendrickson,62.6,120.2,70.31,145.15,335.66,Single-ply,SBD,M
Boys,67.13,10,Donte Miller,Pflugerville Connally,67.13,113.4,79.38,142.88,335.66,Single-ply,SBD,M
Boys,67.13,11,TJ Eldridge,Pflugerville Hendrickson,67.13,124.74,72.57,136.08,333.39,Single-ply,SBD,M
Boys,67.13,12,Chris Gomes,Austin Lake Travis,60.42,111.13,88.45,131.54,331.12,Single-ply,SBD,M
Boys,67.13,13,Chris Facundo,San Marcos,67.13,108.86,79.38,136.08,324.32,Single-ply,SBD,M
Boys,67.13,14,Josh Lucio-Salinas,San Marcos,65.86,104.33,70.31,136.08,310.71,Single-ply,SBD,M
Boys,67.13,DQ,Mark White,Elgin,65.14,88.45,,,,Single-ply,SBD,M
Boys,74.84,1,Braden Tschirhart,College Station,71.58,226.8,131.54,195.04,553.38,Single-ply,SBD,M
Boys,74.84,2,Isaac Johnson,Elgin,69.22,215.46,108.86,226.8,551.11,Single-ply,SBD,M
Boys,74.84,3,Kevin Best,Manor,73.03,188.24,124.74,188.24,501.22,Single-ply,SBD,M
Boys,74.84,4,Jordan Lawrence,Pflugerville Connally,69.4,158.76,106.59,192.78,458.13,Single-ply,SBD,M
Boys,74.84,5,Kevin Cervantes,Elgin,71.85,170.1,102.06,183.7,455.86,Single-ply,SBD,M
Boys,74.84,6,Austen Smith,College Station A&M; Cons,74.57,154.22,104.33,192.78,451.32,Single-ply,SBD,M
Boys,74.84,7,Jayden Medina,Hutto,74.75,165.56,95.25,190.51,451.32,Single-ply,SBD,M
Boys,74.84,8,Jakobe Davidson,Hutto,72.67,156.49,83.91,190.51,430.91,Single-ply,SBD,M
Boys,74.84,9,Michael Hernandez,Pflugerville,72.76,158.76,92.99,179.17,430.91,Single-ply,SBD,M
Boys,74.84,10,Eain Kennedy,Manor,71.21,158.76,97.52,172.37,428.64,Single-ply,SBD,M
Boys,74.84,11,Drew Ybarra,Pflugerville Connally,73.94,138.35,97.52,170.1,405.97,Single-ply,SBD,M
Boys,74.84,12,Cameron Forrest,Hutto,68.13,142.88,97.52,163.29,403.7,Single-ply,SBD,M
Boys,74.84,13,Christian Yannis,Taylor,71.03,142.88,81.65,179.17,403.7,Single-ply,SBD,M
Boys,74.84,14,Peyton Blake,Elgin,74.84,161.03,79.38,149.69,390.09,Single-ply,SBD,M
Boys,74.84,15,Trevor Knesek,Rockdale,67.95,149.69,74.84,158.76,383.29,Single-ply,SBD,M
Boys,74.84,16,Michael Vargas,San Marcos,72.57,117.93,86.18,142.88,347,Single-ply,SBD,M
Boys,74.84,17,Keali-r Ruiz Silva,Manor,73.75,90.72,70.31,142.88,303.91,Single-ply,SBD,M
Boys,74.84,18,Michael Nnaji,Pflugerville Connally,73.75,97.52,77.11,113.4,288.03,Single-ply,SBD,M
Boys,82.1,1,Everado Araujo,Taylor,79.65,263.08,149.69,254.01,666.78,Single-ply,SBD,M
Boys,82.1,2,Phillip Wilson,Pflugerville Connally,82.1,240.4,145.15,213.19,598.74,Single-ply,SBD,M
Boys,82.1,3,Jesus Oranday,Taylor,78.02,235.87,131.54,217.72,585.13,Single-ply,SBD,M
Boys,82.1,4,Robert Franklin,College Station A&M; Cons,77.29,217.72,131.54,219.99,569.26,Single-ply,SBD,M
Boys,82.1,5,Davion Ford,Rockdale,79.11,183.7,108.86,204.12,496.68,Single-ply,SBD,M
Boys,82.1,6,Trevor Williams,College Station A&M; Cons,78.65,192.78,113.4,181.44,487.61,Single-ply,SBD,M
Boys,82.1,7,Teondre Parsons,Waco University,78.93,167.83,124.74,183.7,476.27,Single-ply,SBD,M
Boys,82.1,8,Jordan Fox #2,College Station,82.1,181.44,92.99,181.44,455.86,Single-ply,SBD,M
Boys,82.1,9,Dalton Smith,Rockdale,77.2,176.9,106.59,167.83,451.32,Single-ply,SBD,M
Boys,82.1,10,Israel Romero,San Marcos,81.65,149.69,97.52,167.83,415.04,Single-ply,SBD,M
Boys,82.1,11,Cedric Willis,Waco University,78.93,147.42,95.25,158.76,401.43,Single-ply,SBD,M
Boys,82.1,12,Collin Ramos,San Marcos,76.75,142.88,86.18,167.83,396.89,Single-ply,SBD,M
Boys,82.1,13,Taylor Brocato,Manor,76.57,127.01,90.72,154.22,371.95,Single-ply,SBD,M
Boys,82.1,14,Cody Lujan,San Marcos,78.93,115.67,74.84,158.76,349.27,Single-ply,SBD,M
Boys,82.1,15,Cory Alcala,Pflugerville Connally,78.38,120.2,88.45,129.27,337.93,Single-ply,SBD,M
Boys,82.1,DQ,Josh Orr,Elgin,80.1,163.29,81.65,,,Single-ply,SBD,M
Boys,82.1,DQ,Jeremiah Walker,Waco University,77.02,174.63,111.13,,,Single-ply,SBD,M
Boys,89.81,1,Chris Hatch,Taylor,85.55,226.8,174.63,226.8,628.23,Single-ply,SBD,M
Boys,89.81,2,Olisa Uzuegbunam,Manor,87.09,197.31,131.54,222.26,551.11,Single-ply,SBD,M
Boys,89.81,3,Mark Wagner #4,College Station,89.81,210.92,131.54,204.12,546.58,Single-ply,SBD,M
Boys,89.81,4,Ben Wolz,College Station,88.36,210.92,113.4,204.12,528.44,Single-ply,SBD,M
Boys,89.81,5,RJ Petaia,Pflugerville,89.27,179.17,120.2,201.85,501.22,Single-ply,SBD,M
Boys,89.81,6,Devin Levias,College Station A&M; Cons,85.09,176.9,113.4,188.24,478.54,Single-ply,SBD,M
Boys,89.81,7,Rene Velasquez,San Marcos,87.45,183.7,115.67,176.9,476.27,Single-ply,SBD,M
Boys,89.81,8,Garrett Brissette,Austin Lake Travis,87.27,161.03,102.06,181.44,444.52,Single-ply,SBD,M
Boys,89.81,9,Victor Pierce,Elgin,87,147.42,83.91,183.7,415.04,Single-ply,SBD,M
Boys,89.81,10,Jimmy Salazar,Pflugerville Hendrickson,84.73,145.15,104.33,158.76,408.23,Single-ply,SBD,M
Boys,89.81,11,Will Scheffe,Austin Lake Travis,85.28,151.95,88.45,163.29,403.7,Single-ply,SBD,M
Boys,89.81,12,Andre Stiles,Pflugerville Connally,83.82,136.08,92.99,161.03,390.09,Single-ply,SBD,M
Boys,89.81,13,John Sanchez #5,San Marcos,87.18,136.08,86.18,163.29,385.55,Single-ply,SBD,M
Boys,89.81,14,Tim Mendoza,San Marcos,84.91,131.54,88.45,161.03,381.02,Single-ply,SBD,M
Boys,89.81,15,Thinh Pham,Pflugerville,87.91,120.2,97.52,138.35,356.07,Single-ply,SBD,M
Boys,89.81,16,Jacob Carter,Austin Lake Travis,82.74,124.74,77.11,151.95,353.8,Single-ply,SBD,M
Boys,89.81,17,Elijah Estrada,Pflugerville Hendrickson,85.91,122.47,92.99,138.35,353.8,Single-ply,SBD,M
Boys,89.81,18,Colton Hanacik,Taylor,88.27,106.59,79.38,147.42,333.39,Single-ply,SBD,M
Boys,89.81,DQ,Martin Navarrete,Taylor,84.19,,,,,Single-ply,SBD,M
Boys,99.79,1,Paul Sanchez,Hutto,99.06,256.28,129.27,265.35,650.91,Single-ply,SBD,M
Boys,99.79,2,Adrian Hunter,Manor,99.06,204.12,124.74,254.01,582.87,Single-ply,SBD,M
Boys,99.79,3,Sebastian Bravo,Waco University,95.8,238.14,111.13,215.46,564.72,Single-ply,SBD,M
Boys,99.79,4,Bradley Dorsett,College Station,97.52,217.72,131.54,190.51,539.77,Single-ply,SBD,M
Boys,99.79,5,Kevin Leonard,College Station A&M; Cons,93.8,208.65,113.4,215.46,537.51,Single-ply,SBD,M
Boys,99.79,6,Seth Russell,College Station,94.71,226.8,97.52,199.58,523.9,Single-ply,SBD,M
Boys,99.79,7,Xavian Ellison,Rockdale,98.88,195.04,138.35,172.37,505.76,Single-ply,SBD,M
Boys,99.79,8,Aaron Porter,Pflugerville Hendrickson,93.62,174.63,106.59,215.46,496.68,Single-ply,SBD,M
Boys,99.79,9,Jordan Jackson #2,Pflugerville Connally,99.61,176.9,111.13,190.51,478.54,Single-ply,SBD,M
Boys,99.79,10,Braijon Easley,Waco University,98.88,170.1,113.4,181.44,464.93,Single-ply,SBD,M
Boys,99.79,11,Roderick Lloyd,Waco University,94.98,158.76,102.06,195.04,455.86,Single-ply,SBD,M
Boys,99.79,12,Ochaun Mathis,Manor,92.99,136.08,108.86,204.12,449.06,Single-ply,SBD,M
Boys,99.79,13,Denver Coddington,Pflugerville,98.52,170.1,113.4,165.56,449.06,Single-ply,SBD,M
Boys,99.79,14,Josh Cabello,Elgin,93.89,149.69,68.04,133.81,351.53,Single-ply,SBD,M
Boys,99.79,15,Christian Marmolejo,San Marcos,90.63,115.67,58.97,156.49,331.12,Single-ply,SBD,M
Boys,99.79,16,Bryan Sevilla,Pflugerville Connally,90.72,113.4,65.77,120.2,299.37,Single-ply,SBD,M
Boys,99.79,17,Trace Lopez,Taylor,95.07,104.33,63.5,122.47,290.3,Single-ply,SBD,M
Boys,109.77,1,Paul Dominguez,Taylor,108.77,290.3,188.24,240.4,718.94,Single-ply,SBD,M
Boys,109.77,2,Carlos Chester,Manor,107.95,260.82,181.44,272.16,714.41,Single-ply,SBD,M
Boys,109.77,3,Jacob Aguirre,Rockdale,109.23,244.94,154.22,226.8,625.96,Single-ply,SBD,M
Boys,109.77,4,Dominic Pastucci,Pflugerville Hendrickson,109.23,210.92,140.61,229.06,580.6,Single-ply,SBD,M
Boys,109.77,5,Rashon Sheppard,Pflugerville Connally,100.61,195.04,127.01,208.65,530.7,Single-ply,SBD,M
Boys,109.77,6,James Rodriguez,Pflugerville,105.87,192.78,113.4,181.44,487.61,Single-ply,SBD,M
Boys,109.77,7,Wyatt Chambers,Rockdale,109.32,176.9,120.2,165.56,462.66,Single-ply,SBD,M
Boys,109.77,8,Jeremy Fowler,Manor,100.61,142.88,102.06,192.78,437.72,Single-ply,SBD,M
Boys,109.77,9,Jace Chambers,Pflugerville Hendrickson,100.52,147.42,92.99,156.49,396.89,Single-ply,SBD,M
Boys,109.77,DQ,John Navejas,Elgin,102.51,,,,,Single-ply,SBD,M
Boys,124.74,1,Terry Cook,Elgin,116.8,226.8,129.27,226.8,582.87,Single-ply,SBD,M
Boys,124.74,2,Nelson Mbanasor,Pflugerville Hendrickson,110.5,210.92,131.54,231.33,573.79,Single-ply,SBD,M
Boys,124.74,3,Joshua Tran,Pflugerville Connally,112.4,215.46,124.74,226.8,566.99,Single-ply,SBD,M
Boys,124.74,4,Jordan Barrs,Pflugerville,124.74,204.12,158.76,204.12,566.99,Single-ply,SBD,M
Boys,124.74,5,Quentin White,Rockdale,110.13,226.8,131.54,183.7,542.04,Single-ply,SBD,M
Boys,124.74,6,Eliel Salazar,Elgin,120.2,185.97,129.27,204.12,519.36,Single-ply,SBD,M
Boys,124.74,7,Andrew Diver,Rockdale,124.19,197.31,136.08,174.63,508.02,Single-ply,SBD,M
Boys,124.74,8,Tracy Linton #2,Waco University,115.39,181.44,129.27,165.56,476.27,Single-ply,SBD,M
Boys,124.74,9,Tyrek Kerley,Pflugerville Connally,115.67,183.7,106.59,183.7,474,Single-ply,SBD,M
Boys,124.74,10,Tristan Resendez,Pflugerville Connally,113.94,181.44,106.59,167.83,455.86,Single-ply,SBD,M
Boys,124.74,11,Tyler Barrett,Austin Lake Travis,118.84,142.88,106.59,183.7,433.18,Single-ply,SBD,M
Boys,124.74,12,Travis Claridge,Pflugerville Hendrickson,122.47,142.88,88.45,192.78,424.11,Single-ply,SBD,M
Boys,124.74+,1,Marquis Gardner,Manor,145.88,294.84,183.7,229.06,707.6,Single-ply,SBD,M
Boys,124.74+,2,Domenico Valdespino,Pflugerville Hendrickson,130.73,229.06,133.81,233.6,596.47,Single-ply,SBD,M
Boys,124.74+,3,David Hahn,College Station,128.82,233.6,113.4,204.12,551.11,Single-ply,SBD,M
Boys,124.74+,4,Matt Armedariz,Austin Lake Travis,129.73,201.85,120.2,222.26,544.31,Single-ply,SBD,M
Boys,124.74+,5,Silas Davis,Pflugerville Connally,197.31,185.97,136.08,188.24,510.29,Single-ply,SBD,M
Boys,124.74+,6,Nick Dela Rosa,San Marcos,147.42,204.12,92.99,195.04,492.15,Single-ply,SBD,M
Boys,124.74+,7,S Molina,Rockdale,132.72,172.37,131.54,185.97,489.88,Single-ply,SBD,M
Boys,124.74+,DQ,Anthony Hill #5,Manor,169.19,226.8,,,,Single-ply,SBD,M
