Division,WeightClassKg,Place,Name,Team,BodyweightKg,Best3SquatKg,Best3BenchKg,Best3DeadliftKg,TotalKg,Equipment,Event,Sex,BirthDate
Boys,51.71,1,Damian Ash,Royse City,51.71,158.76,88.45,151.95,399.16,Unlimited,SBD,M,
Boys,51.71,2,Kam Rodriguez,Houston Spring Woods,50.94,145.15,83.91,149.69,378.75,Unlimited,SBD,M,
Boys,51.71,3,Allan Cellars,Killeen,47.22,111.13,52.16,124.74,288.03,Unlimited,SBD,M,
Boys,51.71,4,Connor Lamar,Waller,50.44,111.13,61.23,113.4,285.76,Unlimited,SBD,M,
Boys,51.71,5,Korbin Pantoja,Azle,51.39,104.33,61.23,106.59,272.16,Unlimited,SBD,M,
Boys,51.71,6,Miguel Juarez,Rosebud-Lott,47.63,95.25,56.7,108.86,260.82,Unlimited,SBD,M,
Boys,51.71,7,Greg Williamson,Huntington,45.31,86.18,52.16,81.65,219.99,Unlimited,SBD,M,
Boys,51.71,DQ,Dj Travis,Rockdale,50.98,90.72,,,,Unlimited,SBD,M,
Boys,55.79,1,Chase Richard,Marble Falls,55.79,170.1,108.86,183.7,462.66,Unlimited,SBD,M,
Boys,55.79,2,Kevin Chavez,Royse City,54.61,170.1,92.99,185.97,449.06,Unlimited,SBD,M,
Boys,55.79,3,Christian Sein,Marble Falls,55.79,158.76,83.91,170.1,412.77,Unlimited,SBD,M,
Boys,55.79,4,Marshall Francis,Huntington,55.47,147.42,77.11,174.63,399.16,Unlimited,SBD,M,
Boys,55.79,5,Anthony York,Azle,55.79,133.81,81.65,127.01,342.46,Unlimited,SBD,M,
Boys,55.79,6,Tin Nguyen #3,Houston Spring Woods,53.52,97.52,65.77,129.27,292.57,Unlimited,SBD,M,
Boys,55.79,7,Gabe Guajardo,Huntington,55.79,106.59,54.43,127.01,288.03,Unlimited,SBD,M,
Boys,59.87,1,Adan Lopez,Marble Falls,59.1,204.12,111.13,213.19,528.44,Unlimited,SBD,M,
Boys,59.87,2,Alan Hard,Azle,59.38,190.51,113.4,195.04,498.95,Unlimited,SBD,M,
Boys,59.87,3,Aaron Dominguez,Marble Falls,59.78,195.04,97.52,183.7,476.27,Unlimited,SBD,M,
Boys,59.87,4,Aidan Valdez,Rosebud-Lott,59.33,158.76,111.13,174.63,444.52,Unlimited,SBD,M,
Boys,59.87,5,Kato Mattair,Rosebud-Lott,59.01,170.1,108.86,163.29,442.25,Unlimited,SBD,M,
Boys,59.87,6,Tristyn Keaton,Azle,58.92,165.56,97.52,174.63,437.72,Unlimited,SBD,M,
Boys,59.87,7,Timothy Kruger,Rosebud-Lott,56.43,136.08,92.99,138.35,367.41,Unlimited,SBD,M,
Boys,59.87,8,Hector Sanchez,Killeen,59.47,115.67,79.38,156.49,351.53,Unlimited,SBD,M,
Boys,59.87,9,Jaydon Rodriguez,Waller,59.01,115.67,83.91,138.35,337.93,Unlimited,SBD,M,
Boys,59.87,10,Briggs Casner,Thorndale,56.52,115.67,68.04,113.4,297.1,Unlimited,SBD,M,
Boys,59.87,11,Sergio Rodriguez,Little River Academy,58.79,174.63,,,174.63,Unlimited,S,M,
Boys,59.87,DQ,Pistol Chapa,Houston Spring Woods,59.47,172.37,,,,Unlimited,SBD,M,
Boys,59.87,DQ,Nick Olivo,Houston Spring Woods,59.87,154.22,104.33,,,Unlimited,SBD,M,
Boys,67.13,1,Aaron Arredondo,Marble Falls,64.73,233.6,151.95,190.51,576.06,Unlimited,SBD,M,
Boys,67.13,2,Cayden Lawson,Azle,66.32,190.51,117.93,224.53,532.97,Unlimited,SBD,M,
Boys,67.13,3,Austin Reynolds,Royse City,66.72,192.78,142.88,183.7,519.36,Unlimited,SBD,M,
Boys,67.13,4,Brody Allen,Little River Academy,65.63,170.1,108.86,206.38,485.34,Unlimited,SBD,M,
Boys,67.13,5,Ethan Stanley,Rockdale,60.78,142.88,88.45,158.76,390.09,Unlimited,SBD,M,
Boys,67.13,6,Hayden Thigpen,Thorndale,65.73,129.27,83.91,147.42,360.61,Unlimited,SBD,M,
Boys,67.13,DQ,Ayden Pena,Rockdale,61.82,124.74,,,,Unlimited,SBD,M,
Boys,67.13,DQ,Miguel Garcia,Waller,66.36,226.8,,,,Unlimited,SBD,M,
Boys,67.13,DQ,Edgar Valles,Azle,66.81,183.7,,,,Unlimited,SBD,M,
Boys,74.84,1,Arnulfo Salazar,Marble Falls,74.66,219.99,142.88,199.58,562.45,Unlimited,SBD,M,
Boys,74.84,2,Kyle Timmons,Little River Academy,72.12,208.65,136.08,210.92,555.65,Unlimited,SBD,M,
Boys,74.84,3,Nick Villareal,Bryan Rudder,73.07,217.72,115.67,215.46,548.85,Unlimited,SBD,M,
Boys,74.84,4,Dylan Jones,Rockdale,73.3,197.31,99.79,226.8,523.9,Unlimited,SBD,M,
Boys,74.84,5,Austin Morgan,Little River Academy,73.98,183.7,138.35,197.31,519.36,Unlimited,SBD,M,
Boys,74.84,6,Diego Manteca,Waller,72.08,197.31,129.27,167.83,494.42,Unlimited,SBD,M,
Boys,74.84,7,Jacob Beardsley,Thorndale,74.21,183.7,120.2,183.7,487.61,Unlimited,SBD,M,
Boys,74.84,8,Isaiah Vaquero,Houston Spring Woods,72.8,165.56,113.4,199.58,478.54,Unlimited,SBD,M,
Boys,74.84,9,Hugo Costilla,Rosebud-Lott,74.21,188.24,115.67,174.63,478.54,Unlimited,SBD,M,
Boys,74.84,10,Luciano Legon,Thorndale,74.25,181.44,106.59,185.97,474,Unlimited,SBD,M,
Boys,74.84,11,Marcus Shaw,Thorndale,71.12,165.56,115.67,142.88,424.11,Unlimited,SBD,M,
Boys,74.84,12,Grady Ballard,Thorndale,72.3,151.95,113.4,151.95,417.3,Unlimited,SBD,M,
Boys,74.84,13,Josue Castillo Reyes,Killeen,71.12,151.95,83.91,165.56,401.43,Unlimited,SBD,M,
Boys,74.84,14,Cameron Ford,Thorndale,68.76,136.08,79.38,142.88,358.34,Unlimited,SBD,M,
Boys,74.84,DQ,Kris Rodriguez,Houston Spring Woods,73.8,185.97,,,,Unlimited,SBD,M,
Boys,82.1,1,Cash Moore,Azle,81.69,231.33,176.9,226.8,635.03,Unlimited,SBD,M,
Boys,82.1,2,Peyton Morgan,Little River Academy,81.15,226.8,138.35,217.72,582.87,Unlimited,SBD,M,
Boys,82.1,3,Bruce Hendrick,Bryan Rudder,80.29,210.92,154.22,215.46,580.6,Unlimited,SBD,M,
Boys,82.1,4,Alvin Clarkson-Williams,Rosebud-Lott,80.78,219.99,154.22,195.04,569.26,Unlimited,SBD,M,
Boys,82.1,5,Oswaldo Sanchez,Marble Falls,78.2,204.12,129.27,217.72,551.11,Unlimited,SBD,M,
Boys,82.1,6,Ben Myers,Thorndale,81.19,183.7,127.01,204.12,514.83,Unlimited,SBD,M,
Boys,82.1,7,Logan Tays,Rosebud-Lott,76.7,174.63,113.4,176.9,464.93,Unlimited,SBD,M,
Boys,82.1,8,Kaylor Eschberger,Rockdale,76.43,104.33,70.31,124.74,299.37,Unlimited,SBD,M,
Boys,82.1,DQ,Dalton Porter,Little River Academy,81.19,242.67,115.67,,,Unlimited,SBD,M,
Boys,89.81,1,Xavier Lopez,Marble Falls,82.92,294.84,151.95,322.05,768.84,Unlimited,SBD,M,
Boys,89.81,2,Trace Emola,Bryan Rudder,88.27,288.03,185.97,254.01,728.02,Unlimited,SBD,M,
Boys,89.81,3,Daniel Rodriguez,Rosebud-Lott,88.68,269.89,174.63,258.55,703.07,Unlimited,SBD,M,
Boys,89.81,4,Tyler Ulrich,Azle,83.73,240.4,156.49,240.4,637.3,Unlimited,SBD,M,
Boys,89.81,5,Josue Garcia,Marble Falls,87.86,235.87,165.56,231.33,632.76,Unlimited,SBD,M,
Boys,89.81,6,Noah Escandon,Marble Falls,86,254.01,147.42,217.72,619.15,Unlimited,SBD,M,
Boys,89.81,7,Ryan Chim,Waller,82.42,233.6,161.03,199.58,594.21,Unlimited,SBD,M,
Boys,89.81,8,Christian Dehoyas,Azle,86.95,229.06,136.08,226.8,591.94,Unlimited,SBD,M,
Boys,89.81,9,Brandon Molina,Killeen,86.05,204.12,142.88,238.14,585.13,Unlimited,SBD,M,
Boys,89.81,10,Kasey Mraz,Little River Academy,86.59,226.8,138.35,210.92,576.06,Unlimited,SBD,M,
Boys,89.81,11,El Grande Gunner,Waller,88.63,210.92,95.25,219.99,526.17,Unlimited,SBD,M,
Boys,89.81,12,Luke Price,Rosebud-Lott,88.09,201.85,145.15,167.83,514.83,Unlimited,SBD,M,
Boys,89.81,13,William Rash,Bryan Rudder,87.04,185.97,127.01,185.97,498.95,Unlimited,SBD,M,
Boys,89.81,14,Brandon Evans,Killeen,88.72,170.1,104.33,190.51,464.93,Unlimited,SBD,M,
Boys,99.79,1,Case Moore,Azle,95.48,278.96,185.97,242.67,707.6,Unlimited,SBD,M,
Boys,99.79,2,Adam Caddell,Little River Academy,98.93,254.01,183.7,238.14,675.85,Unlimited,SBD,M,
Boys,99.79,3,Jose Solorzano,Marble Falls,99.02,290.3,151.95,226.8,669.05,Unlimited,SBD,M,
Boys,99.79,4,Deven Cuba,Thorndale,94.66,249.48,158.76,238.14,646.37,Unlimited,SBD,M,
Boys,99.79,5,Christian Gonzalez,Houston Spring Woods,94.35,229.06,154.22,238.14,621.42,Unlimited,SBD,M,
Boys,99.79,6,Edgar Vite,Houston Spring Woods,99.47,231.33,142.88,229.06,603.28,Unlimited,SBD,M,
Boys,99.79,7,Leavy Owens,Azle,92.35,231.33,147.42,213.19,591.94,Unlimited,SBD,M,
Boys,99.79,8,Nick Ramirez,Thorndale,95.16,208.65,183.7,190.51,582.87,Unlimited,SBD,M,
Boys,99.79,9,Garrett Cook,Rosebud-Lott,98.61,217.72,131.54,226.8,576.06,Unlimited,SBD,M,
Boys,99.79,10,Sergio Hernandez,Marble Falls,96.89,235.87,104.33,208.65,548.85,Unlimited,SBD,M,
Boys,99.79,DQ,Angel Vanegas,Houston Spring Woods,94.35,242.67,,,,Unlimited,SBD,M,
Boys,109.77,1,Caden Berry,Little River Academy,108.14,317.51,183.7,249.48,750.7,Unlimited,SBD,M,
Boys,109.77,2,Tug Turner,Little River Academy,105.96,260.82,183.7,235.87,680.39,Unlimited,SBD,M,
Boys,109.77,3,Ragan Roberts,Rockdale,104.05,226.8,142.88,197.31,566.99,Unlimited,SBD,M,
Boys,109.77,4,Keaton Proctor,Marble Falls,101.42,226.8,113.4,222.26,562.45,Unlimited,SBD,M,
Boys,109.77,5,Anthony Luna,Houston Spring Woods,109.36,226.8,113.4,222.26,562.45,Unlimited,SBD,M,
Boys,109.77,6,Kasen Thomas,Azle,104.51,238.14,124.74,192.78,555.65,Unlimited,SBD,M,
Boys,109.77,7,Tyler Benavidez,Bryan Rudder,108.77,217.72,124.74,195.04,537.51,Unlimited,SBD,M,
Boys,109.77,8,Erik Castillo,Rosebud-Lott,101.6,210.92,113.4,197.31,521.63,Unlimited,SBD,M,
Boys,109.77,9,Jace Henderson,Rockdale,102.51,142.88,90.72,129.27,362.87,Unlimited,SBD,M,
Boys,124.74,1,Hunter McGary,Bryan Rudder,119.02,297.1,172.37,249.48,718.94,Unlimited,SBD,M,
Boys,124.74,2,Leighton Geiman,Waller,122.83,242.67,190.51,226.8,659.98,Unlimited,SBD,M,
Boys,124.74,3,Jake Jones,Little River Academy,114.58,226.8,174.63,229.06,630.49,Unlimited,SBD,M,
Boys,124.74,4,Brendon Tays,Rosebud-Lott,120.66,260.82,158.76,204.12,623.69,Unlimited,SBD,M,
Boys,124.74,5,Alex Rodriguez,Rosebud-Lott,123.79,249.48,151.95,208.65,610.08,Unlimited,SBD,M,
Boys,124.74,6,Reuben Logan,Royse City,120.38,244.94,165.56,170.1,580.6,Unlimited,SBD,M,
Boys,124.74,7,Jose Galvan,Marble Falls,114.49,224.53,122.47,204.12,551.11,Unlimited,SBD,M,
Boys,124.74,8,Tyler Linseisen,Waller,120.84,181.44,120.2,181.44,483.08,Unlimited,SBD,M,
Boys,139.71,1,Kaleb Yount,Thorndale,125.55,294.84,226.8,260.82,782.45,Unlimited,SBD,M,
Boys,139.71,2,Orlando Feregrino,Little River Academy,136.62,272.16,226.8,233.6,732.55,Unlimited,SBD,M,
Boys,139.71,3,Solomon Reid,Huntington,129.18,272.16,158.76,231.33,662.24,Unlimited,SBD,M,
Boys,139.71,4,Samuel Hernandez,Killeen,134.85,244.94,149.69,226.8,621.42,Unlimited,SBD,M,
Boys,139.71,5,Juan Gutierrez,Bryan Rudder,130.59,267.62,127.01,213.19,607.81,Unlimited,SBD,M,
Boys,139.71,6,Chris Perez,Houston Spring Woods,134.04,226.8,124.74,170.1,521.63,Unlimited,SBD,M,
Boys,139.71+,1,Nick Smith,Huntington,147.69,263.08,199.58,244.94,707.6,Unlimited,SBD,M,
Boys,139.71+,2,Elario Chavez,Killeen,147.87,217.72,149.69,222.26,589.67,Unlimited,SBD,M,
