Division,WeightClassKg,Place,Name,Team,BodyweightKg,Best3SquatKg,Best3BenchKg,Best3DeadliftKg,TotalKg,Equipment,Event,Sex
Boys,51.71,1,Victor Peluso,Frisco Wakeland,51.35,136.08,97.52,158.76,392.36,Single-ply,SBD,M
Boys,51.71,2,Toni Ogunsola,Frisco,51.12,147.42,79.38,147.42,374.21,Single-ply,SBD,M
Boys,51.71,3,Cassius Fitzpatrick,Denison,51.48,136.08,83.91,136.08,356.07,Single-ply,SBD,M
Boys,51.71,4,Michael Robason,Frisco Wakeland,50.53,149.69,70.31,131.54,351.53,Single-ply,SBD,M
Boys,51.71,5,Ed Khokhar,Frisco Heritage,51.39,127.01,79.38,145.15,351.53,Single-ply,SBD,M
Boys,55.79,6,Axel Banks,Denison,51.8,108.86,72.57,120.2,301.64,Single-ply,SBD,M
Boys,51.71,7,Savon Logan,Carrollton Creekview,51.62,113.4,56.7,111.13,281.23,Single-ply,SBD,M
Boys,51.71,8,Chance Alexander,McKinney North,48.94,70.31,38.56,102.06,210.92,Single-ply,SBD,M
Boys,51.71,DQ,Roberto Parra,Carrollton Creekview,49.53,,,,,Single-ply,SBD,M
Boys,55.79,1,Haif Martinez,Lewisville The Colony,53.57,185.97,102.06,195.04,483.08,Single-ply,SBD,M
Boys,55.79,2,Donovan Hayes,Frisco Centennial,52.07,140.61,77.11,140.61,358.34,Single-ply,SBD,M
Boys,55.79,3,Dongchan Kim,Frisco,54.34,147.42,79.38,124.74,351.53,Single-ply,SBD,M
Boys,55.79,4,Trey Patton,Frisco Wakeland,54.3,138.35,61.23,147.42,347,Single-ply,SBD,M
Boys,55.79,5,Marcell Roach,Carrollton Creekview,54.2,136.08,72.57,124.74,333.39,Single-ply,SBD,M
Boys,59.87,6,Ryan Allo,Carrollton Creekview,56.02,117.93,81.65,122.47,322.05,Single-ply,SBD,M
Boys,59.87,7,Rowan Wroten,Frisco Heritage,55.84,111.13,61.23,117.93,290.3,Single-ply,SBD,M
Boys,59.87,8,Simon Lafond,Garland Rowlett,55.97,102.06,61.23,124.74,288.03,Single-ply,SBD,M
Boys,55.79,9,Nathan Scoggins,Prosper,54.11,83.91,58.97,92.99,235.87,Single-ply,SBD,M
Boys,55.79,10,Blake Weaver,Frisco Heritage,54.11,68.04,54.43,95.25,217.72,Single-ply,SBD,M
Boys,55.79,DQ,Steven Lira,Little Elm,53.07,,,,,Single-ply,SBD,M
Boys,59.87,1,Carlos Bravo,Lewisville The Colony,57.88,188.24,102.06,183.7,474,Single-ply,SBD,M
Boys,59.87,2,Grayson Sneed,Frisco Centennial,59.69,158.76,86.18,149.69,394.63,Single-ply,SBD,M
Boys,59.87,3,Nick Baril,Frisco Centennial,59.38,147.42,99.79,142.88,390.09,Single-ply,SBD,M
Boys,59.87,4,Jacob Wantroba,Denison,58.33,131.54,72.57,120.2,324.32,Single-ply,SBD,M
Boys,59.87,5,Zachary Drogosch,Allen,58.83,104.33,63.5,111.13,278.96,Single-ply,SBD,M
Boys,59.87,DQ,K. Collier,South Garland,59.33,,,,,Single-ply,SBD,M
Boys,67.13,1,Devaughn Childress,Frisco Wakeland,65.14,192.78,104.33,192.78,489.88,Single-ply,SBD,M
Boys,67.13,2,Tim Sanders,Lewisville The Colony,67.09,195.04,108.86,174.63,478.54,Single-ply,SBD,M
Boys,67.13,3,Anthony Wagner,Garland Rowlett,66.9,176.9,113.4,181.44,471.74,Single-ply,SBD,M
Boys,67.13,4,Bradley Beck,McKinney,64.46,181.44,108.86,170.1,460.4,Single-ply,SBD,M
Boys,67.13,5,Dakota Thomas,Denison,66.9,167.83,97.52,181.44,446.79,Single-ply,SBD,M
Boys,67.13,6,Cory Saunders,McKinney North,66.72,176.9,88.45,179.17,444.52,Single-ply,SBD,M
Boys,67.13,7,Mason Pierce,Frisco Centennial,67.13,147.42,108.86,176.9,433.18,Single-ply,SBD,M
Boys,67.13,8,Cory Chappell,Garland Rowlett,60.33,142.88,88.45,165.56,396.89,Single-ply,SBD,M
Boys,67.13,9,Re Knight,Frisco Centennial,60.28,158.76,88.45,138.35,385.55,Single-ply,SBD,M
Boys,67.13,10,David Block,Denison,66.5,136.08,81.65,161.03,378.75,Single-ply,SBD,M
Boys,67.13,11,Dale Drew,Frisco Liberty,65.14,147.42,99.79,113.4,360.61,Single-ply,SBD,M
Boys,67.13,12,Aaron Parsonage,McKinney North,66.77,136.08,68.04,151.95,356.07,Single-ply,SBD,M
Boys,67.13,13,Mason Lowrimore,Garland Rowlett,66.41,113.4,79.38,136.08,328.85,Single-ply,SBD,M
Boys,67.13,14,Wade Woodard,Prosper,63.96,111.13,90.72,102.06,303.91,Single-ply,SBD,M
Boys,67.13,DQ,Chris Alcantar,Carrollton Creekview,61.23,,,,,Single-ply,SBD,M
Boys,67.13,DQ,David Escobar,Carrollton Creekview,66.04,,,,,Single-ply,SBD,M
Boys,74.84,1,Ryan Abraham,Frisco Centennial,74.07,172.37,147.42,222.26,542.04,Single-ply,SBD,M
Boys,74.84,2,Brennan Sooter,Justin Northwest,74.53,199.58,108.86,217.72,526.17,Single-ply,SBD,M
Boys,74.84,3,Ryan Rose,Allen,74.8,183.7,120.2,190.51,494.42,Single-ply,SBD,M
Boys,74.84,4,Zac Vaugh,Little Elm,72.89,185.97,111.13,174.63,471.74,Single-ply,SBD,M
Boys,82.1,5,Pelumi Wemida,Richardson Lake Highlands,74.89,188.24,102.06,181.44,471.74,Single-ply,SBD,M
Boys,74.84,6,Logan Swann,Frisco Wakeland,72.21,156.49,113.4,195.04,464.93,Single-ply,SBD,M
Boys,74.84,7,Avery Wren,Garland Rowlett,72.26,145.15,115.67,181.44,442.25,Single-ply,SBD,M
Boys,74.84,8,James Ray #2,McKinney North,69.49,136.08,83.91,163.29,383.29,Single-ply,SBD,M
Boys,74.84,9,Neal Botteron,Frisco Heritage,70.72,102.06,102.06,138.35,342.46,Single-ply,SBD,M
Boys,74.84,DQ,M. Johnson #1,South Garland,70.53,,,,,Single-ply,SBD,M
Boys,74.84,DQ,Andrew Roessler,Frisco Wakeland,74.84,185.97,,,,Single-ply,SBD,M
Boys,74.84,DQ,Jadin Lewis,Frisco Centennial,68.36,120.2,,,,Single-ply,SBD,M
Boys,82.1,1,Austin Arnold,Denison,81.37,197.31,149.69,222.26,569.26,Single-ply,SBD,M
Boys,82.1,2,Tom Nguyen,Garland Rowlett,80.83,197.31,122.47,222.26,542.04,Single-ply,SBD,M
Boys,82.1,3,Kenneth Whittaker,Frisco Liberty,79.29,201.85,124.74,176.9,503.49,Single-ply,SBD,M
Boys,82.1,4,Ivan Sauerzopf,Frisco Lone Star,81.51,156.49,131.54,185.97,474,Single-ply,SBD,M
Boys,82.1,5,Ross Abraham,Frisco Centennial,77.2,188.24,99.79,183.7,471.74,Single-ply,SBD,M
Boys,82.1,6,Miquan Robinson,Carrollton Creekview,79.11,181.44,108.86,170.1,460.4,Single-ply,SBD,M
Boys,82.1,7,Marquez Husband,McKinney,75.84,185.97,104.33,158.76,449.06,Single-ply,SBD,M
Boys,82.1,8,Briggs Lambring,Frisco,75.8,161.03,106.59,174.63,442.25,Single-ply,SBD,M
Boys,82.1,9,Ryan Woulfe,Frisco,77.84,170.1,111.13,158.76,439.98,Single-ply,SBD,M
Boys,89.81,10,Jack Flowers,Frisco Wakeland,82.19,181.44,90.72,158.76,430.91,Single-ply,SBD,M
Boys,82.1,11,Sean Jones,Frisco Heritage,80.88,136.08,99.79,151.95,387.82,Single-ply,SBD,M
Boys,82.1,12,Robert Merryfield,Frisco Heritage,77.61,138.35,79.38,154.22,371.95,Single-ply,SBD,M
Boys,82.1,DQ,D. McKenna,South Garland,78.88,,,,,Single-ply,SBD,M
Boys,82.1,DQ,Bryson Hebert,Prosper,81.42,154.22,106.59,,,Single-ply,SBD,M
Boys,82.1,DQ,Franke Jesse,Frisco,78.61,,,,,Single-ply,SBD,M
Boys,89.81,1,Jeff Stevens #2,Justin Northwest,85.96,238.14,163.29,258.55,659.98,Single-ply,SBD,M
Boys,99.79,2,Michael Ray #2,Justin Northwest,89.99,219.99,140.61,258.55,619.15,Single-ply,SBD,M
Boys,99.79,3,Aaron Bailey,Frisco Wakeland,90.04,235.87,138.35,231.33,605.55,Single-ply,SBD,M
Boys,89.81,4,Logan Matamoros,Frisco Centennial,89.18,219.99,127.01,199.58,546.58,Single-ply,SBD,M
Boys,99.79,5,Johnathan Garza,Richardson Lake Highlands,89.9,204.12,149.69,188.24,542.04,Single-ply,SBD,M
Boys,89.81,6,Omar Alonso,Prosper,88.18,208.65,129.27,181.44,519.36,Single-ply,SBD,M
Boys,89.81,7,Calvin Estrada,Garland Rowlett,88.63,185.97,117.93,201.85,505.76,Single-ply,SBD,M
Boys,89.81,8,Corbin Diaz,Frisco Lone Star,86.55,199.58,124.74,172.37,496.68,Single-ply,SBD,M
Boys,99.79,9,Tyler Carver #2,Frisco Wakeland,90.04,172.37,124.74,181.44,478.54,Single-ply,SBD,M
Boys,89.81,10,Blake Glenn,Garland Rowlett,84.73,176.9,102.06,197.31,476.27,Single-ply,SBD,M
Boys,89.81,11,J. Lopez,South Garland,87.32,170.1,122.47,183.7,476.27,Single-ply,SBD,M
Boys,89.81,12,Adrian Williams,Carrollton Creekview,84.87,181.44,104.33,181.44,467.2,Single-ply,SBD,M
Boys,89.81,13,Nick Sepper,Frisco Wakeland,89.27,174.63,108.86,172.37,455.86,Single-ply,SBD,M
Boys,89.81,14,Ed Garcia,McKinney North,82.83,158.76,106.59,179.17,444.52,Single-ply,SBD,M
Boys,89.81,15,Jack Hawkins #3,Allen,86.36,156.49,102.06,170.1,428.64,Single-ply,SBD,M
Boys,89.81,16,Logan Teel,McKinney North,84.37,172.37,88.45,158.76,419.57,Single-ply,SBD,M
Boys,89.81,17,Phan Tran,Frisco Lone Star,85.77,151.95,102.06,161.03,415.04,Single-ply,SBD,M
Boys,99.79,18,Garrett Garner,McKinney,89.95,136.08,86.18,170.1,392.36,Single-ply,SBD,M
Boys,89.81,19,Ali Jahangiri,Frisco Liberty,89.63,138.35,88.45,145.15,371.95,Single-ply,SBD,M
Boys,89.81,20,Sefrie Roybal,Frisco Liberty,82.74,124.74,90.72,140.61,356.07,Single-ply,SBD,M
Boys,89.81,DQ,AJ Johnson,South Garland,85.32,185.97,,183.7,,Single-ply,SBD,M
Boys,89.81,DQ,Reginald Marshall,Richardson Lake Highlands,83.19,111.13,,,,Single-ply,SBD,M
Boys,99.79,1,Axel DeLeon,Little Elm,99.29,258.55,142.88,242.67,644.1,Single-ply,SBD,M
Boys,99.79,2,Freddy Hernandez #2,Little Elm,96.16,231.33,151.95,249.48,632.76,Single-ply,SBD,M
Boys,99.79,3,Sir Wells,Lewisville The Colony,98.25,260.82,122.47,249.48,632.76,Single-ply,SBD,M
Boys,99.79,4,Matt Leise,Lewisville The Colony,96.75,265.35,138.35,226.8,630.49,Single-ply,SBD,M
Boys,99.79,5,Isaiah Hinton,Lewisville The Colony,98.47,247.21,127.01,226.8,601.01,Single-ply,SBD,M
Boys,99.79,6,Austin Apari,Lewisville The Colony,98.52,247.21,113.4,240.4,601.01,Single-ply,SBD,M
Boys,99.79,7,Marcus Trevino,Carrollton Creekview,99.56,226.8,142.88,183.7,553.38,Single-ply,SBD,M
Boys,109.77,8,Clay Eppler,Denison,99.97,208.65,124.74,192.78,526.17,Single-ply,SBD,M
Boys,99.79,9,Jaden Stumbaugh,Denison,98.66,197.31,127.01,199.58,523.9,Single-ply,SBD,M
Boys,99.79,10,Reed Joyce,Frisco Centennial,96.39,190.51,117.93,172.37,480.81,Single-ply,SBD,M
Boys,109.77,11,Randall Howard,Richardson Lake Highlands,99.97,158.76,120.2,192.78,471.74,Single-ply,SBD,M
Boys,99.79,12,Kevin Salas,Prosper,93.58,170.1,129.27,158.76,458.13,Single-ply,SBD,M
Boys,99.79,13,Augustine Zavala,McKinney,90.36,158.76,111.13,170.1,439.98,Single-ply,SBD,M
Boys,99.79,14,Jacob Kohlschmidt,McKinney,90.95,158.76,86.18,167.83,412.77,Single-ply,SBD,M
Boys,99.79,15,Dakota Lincoln,Frisco Wakeland,95.89,136.08,95.25,138.35,369.68,Single-ply,SBD,M
Boys,99.79,16,Cole Bryant,Frisco Liberty,93.08,142.88,79.38,142.88,365.14,Single-ply,SBD,M
Boys,99.79,DQ,Marcus Stroud,Prosper,92.44,226.8,,,,Single-ply,SBD,M
Boys,99.79,DQ,Ben Laurent,Richardson Lake Highlands,94.8,192.78,,,,Single-ply,SBD,M
Boys,109.77,DQ,Adam Borne,Frisco Liberty,100.02,222.26,136.08,,,Single-ply,SBD,M
Boys,109.77,1,Clayton McGilvray,Justin Northwest,106.96,263.08,142.88,244.94,650.91,Single-ply,SBD,M
Boys,109.77,2,Kyle Flowers,Frisco Wakeland,103.83,238.14,136.08,215.46,589.67,Single-ply,SBD,M
Boys,109.77,3,Adam Harding,Carrollton Creekview,107.55,204.12,129.27,188.24,521.63,Single-ply,SBD,M
Boys,109.77,4,Alex Nguyen,Frisco,103.87,213.19,102.06,192.78,508.02,Single-ply,SBD,M
Boys,109.77,5,John Chessner,Denison,102.51,197.31,117.93,179.17,494.42,Single-ply,SBD,M
Boys,109.77,6,Drew Percle,Frisco Liberty,105.96,199.58,124.74,170.1,494.42,Single-ply,SBD,M
Boys,109.77,7,Eric Luna,South Garland,101.7,181.44,106.59,199.58,487.61,Single-ply,SBD,M
Boys,109.77,8,X Calderon,South Garland,103.96,176.9,104.33,181.44,462.66,Single-ply,SBD,M
Boys,109.77,9,Hector Ledezma,McKinney,102.47,158.76,104.33,170.1,433.18,Single-ply,SBD,M
Boys,109.77,10,Nic Gee,Prosper,104.6,158.76,102.06,136.08,396.89,Single-ply,SBD,M
Boys,109.77,11,Jeffrey Forst,Frisco Heritage,107.46,158.76,72.57,158.76,390.09,Single-ply,SBD,M
Boys,109.77,DQ,Garrett Reeves,Richardson Lake Highlands,102.69,185.97,,,,Single-ply,SBD,M
Boys,109.77,DQ,Justin Taylor,Little Elm,108.41,,,,,Single-ply,SBD,M
Boys,124.74,1,Chase Appleby,Frisco Centennial,124.15,306.17,149.69,235.87,691.73,Single-ply,SBD,M
Boys,124.74,2,Sawyer Cooper,Justin Northwest,120.07,283.5,163.29,235.87,682.66,Single-ply,SBD,M
Boys,124.74,3,Travis Stubblefield,Justin Northwest,113.94,263.08,163.29,238.14,664.51,Single-ply,SBD,M
Boys,124.74,4,Tai Nguyen,Frisco,122.42,263.08,154.22,217.72,635.03,Single-ply,SBD,M
Boys,124.74,5,Damarcus Henderson,Lewisville The Colony,120.02,249.48,136.08,240.4,625.96,Single-ply,SBD,M
Boys,124.74,6,Taylor Buchanan,Lewisville The Colony,121.56,242.67,124.74,240.4,607.81,Single-ply,SBD,M
Boys,124.74,7,Abel Palma,McKinney North,111.04,231.33,115.67,233.6,580.6,Single-ply,SBD,M
Boys,124.74,8,James Stumbaugh,Denison,113.67,222.26,140.61,206.38,569.26,Single-ply,SBD,M
Boys,124.74,9,Jonathon Flores,Frisco Lone Star,115.48,231.33,129.27,190.51,551.11,Single-ply,SBD,M
Boys,124.74,10,Brad North,Allen,123.47,226.8,122.47,197.31,546.58,Single-ply,SBD,M
Boys,124.74,11,Fritz Hull,Prosper,113.81,215.46,142.88,185.97,544.31,Single-ply,SBD,M
Boys,124.74,12,Z. Taylor,South Garland,124.47,208.65,147.42,183.7,539.77,Single-ply,SBD,M
Boys,124.74,13,Kevin Wortham,Allen,116.21,185.97,131.54,204.12,521.63,Single-ply,SBD,M
Boys,124.74,14,Kyle McKinney,Frisco,121.65,188.24,115.67,170.1,474,Single-ply,SBD,M
Boys,124.74+,15,Myles Massei,Allen,124.96,181.44,106.59,167.83,455.86,Single-ply,SBD,M
Boys,124.74,16,Michael Williams #20,Frisco Heritage,112.63,151.95,86.18,145.15,383.29,Single-ply,SBD,M
Boys,124.74+,1,DJ Willis,Lewisville The Colony,136.67,317.51,167.83,258.55,743.89,Single-ply,SBD,M
Boys,124.74+,2,Trevor Melugin,Prosper,134.54,263.08,156.49,226.8,646.37,Single-ply,SBD,M
Boys,124.74+,3,Arnold DeLaCruz,Carrollton Creekview,131.81,242.67,163.29,226.8,632.76,Single-ply,SBD,M
Boys,124.74+,4,S Langley,South Garland,135.62,260.82,145.15,204.12,610.08,Single-ply,SBD,M
Boys,124.74+,5,Yanko Kovachev,Carrollton Creekview,134.4,233.6,124.74,190.51,548.85,Single-ply,SBD,M
Boys,124.74+,6,William Samford,Allen,128.19,219.99,122.47,204.12,546.58,Single-ply,SBD,M
Boys,124.74+,7,Kent Perkins,Richardson Lake Highlands,130.45,174.63,149.69,183.7,508.02,Single-ply,SBD,M
Boys,124.74+,8,Cole Collier,Prosper,149.59,188.24,127.01,183.7,498.95,Single-ply,SBD,M
