Division,WeightClassKg,Place,Name,Team,BodyweightKg,Best3SquatKg,Best3BenchKg,Best3DeadliftKg,TotalKg,Equipment,Event,Sex,BirthDate
Boys,51.71,1,Cooper Hooks,Huntsville,50.8,136.08,92.99,147.42,376.48,Unlimited,SBD,M,
Boys,51.71,2,Connor Lamar,Waller,48.53,104.33,61.23,111.13,276.69,Unlimited,SBD,M,
Boys,51.71,3,Micah Palmire,Magnolia West,50.35,97.52,61.23,102.06,260.82,Unlimited,SBD,M,
Boys,55.79,1,Tim Craven,Magnolia West,53.07,136.08,79.38,122.47,337.93,Unlimited,SBD,M,
Boys,55.79,2,Julius Singleton,Magnolia West,55.34,108.86,54.43,136.08,299.37,Unlimited,SBD,M,
Boys,55.79,DQ,Léo Hollier,Magnolia,54.61,86.18,,,,Unlimited,SBD,M,
Boys,59.87,1,Donnie Statham,Conroe,59.42,167.83,102.06,167.83,437.72,Unlimited,SBD,M,
Boys,59.87,2,Dylan Sanchez,Magnolia,59.87,170.1,92.99,165.56,428.64,Unlimited,SBD,M,
Boys,59.87,3,Brady Burson,Magnolia,59.87,124.74,102.06,154.22,381.02,Unlimited,SBD,M,
Boys,59.87,4,Luke Larsen,New Caney West Fork,58.97,149.69,83.91,142.88,376.48,Unlimited,SBD,M,
Boys,59.87,5,Terrence Mullins,New Caney West Fork,57.61,124.74,74.84,136.08,335.66,Unlimited,SBD,M,
Boys,59.87,6,Jaydon Rodriguez,Waller,58.97,117.93,79.38,136.08,333.39,Unlimited,SBD,M,
Boys,59.87,7,Adahir Landeros,Conroe,58.97,149.69,92.99,,242.67,Unlimited,SB,M,
Boys,59.87,DQ,Erik Sanchez,Conroe,58.06,,,,,Unlimited,SBD,M,
Boys,59.87,DQ,Ryan Glynn,The Woodlands Christian Academy,58.51,142.88,,,,Unlimited,SBD,M,
Boys,67.13,1,Caleb Henderson,Conroe Oak Ridge,67.04,197.31,133.81,190.51,521.63,Unlimited,SBD,M,
Boys,67.13,2,Tyler Plumley,Conroe,66.68,192.78,120.2,188.24,501.22,Unlimited,SBD,M,
Boys,67.13,3,William Thornton,Magnolia,66.77,174.63,115.67,163.29,453.59,Unlimited,SBD,M,
Boys,67.13,4,Nathan Swartz,Austin Westlake,62.14,165.56,88.45,183.7,437.72,Unlimited,SBD,M,
Boys,67.13,5,Kylin Patin,New Caney West Fork,66.68,165.56,102.06,142.88,410.5,Unlimited,SBD,M,
Boys,67.13,6,Carson Turner,Conroe The Woodlands,62.6,138.35,86.18,147.42,371.95,Unlimited,SBD,M,
Boys,67.13,7,Gilbert Hernandez,Waller,64.86,145.15,70.31,147.42,362.87,Unlimited,SBD,M,
Boys,67.13,8,Alex Musante,Conroe The Woodlands,63.5,136.08,72.57,151.95,360.61,Unlimited,SBD,M,
Boys,67.13,9,Ken Hoang,New Caney West Fork,61.69,149.69,74.84,131.54,356.07,Unlimited,SBD,M,
Boys,67.13,DQ,Marcus Cruz,Waller,63.5,,,,,Unlimited,SBD,M,
Boys,74.84,1,Colton Olsen,Conroe Oak Ridge,74.39,233.6,140.61,226.8,601.01,Unlimited,SBD,M,
Boys,74.84,2,Miguel Garcia,Waller,71.67,231.33,117.93,238.14,587.4,Unlimited,SBD,M,
Boys,74.84,3,Kaiden Warren,Magnolia West,72.12,219.99,136.08,197.31,553.38,Unlimited,SBD,M,
Boys,74.84,4,Thomas Breazeale,The Woodlands Christian Academy,74.84,192.78,90.72,242.67,526.17,Unlimited,SBD,M,
Boys,74.84,5,Phoenix Matthews,Magnolia,73.94,195.04,115.67,206.38,517.1,Unlimited,SBD,M,
Boys,74.84,6,Cole Schroeder,Huntsville,74.39,183.7,117.93,210.92,512.56,Unlimited,SBD,M,
Boys,74.84,7,Jerrett Lovelace,Magnolia,74.75,188.24,122.47,188.24,498.95,Unlimited,SBD,M,
Boys,74.84,8,Urban Woodrome,Conroe,72.12,185.97,104.33,197.31,487.61,Unlimited,SBD,M,
Boys,74.84,9,Diego Manteca,Waller,68.95,199.58,127.01,154.22,480.81,Unlimited,SBD,M,
Boys,74.84,10,Adam Schultz,Magnolia,74.84,185.97,104.33,188.24,478.54,Unlimited,SBD,M,
Boys,74.84,11,Jess Fulsom,Magnolia,74.39,179.17,120.2,174.63,474,Unlimited,SBD,M,
Boys,74.84,12,Kaiden Rome,Montgomery Lake Creek,71.67,156.49,92.99,201.85,451.32,Unlimited,SBD,M,
Boys,74.84,13,Grant Muzny,The Woodlands Christian Academy,72.57,170.1,88.45,158.76,417.3,Unlimited,SBD,M,
Boys,74.84,14,Clay Bailey,Montgomery Lake Creek,72.57,156.49,83.91,167.83,408.23,Unlimited,SBD,M,
Boys,74.84,15,Luke Lamberth,The Woodlands Christian Academy,73.94,151.95,99.79,154.22,405.97,Unlimited,SBD,M,
Boys,74.84,16,Gavin Bridges,The Woodlands Christian Academy,72.12,149.69,83.91,133.81,367.41,Unlimited,SBD,M,
Boys,74.84,17,Julius Martinez,New Caney West Fork,72.57,113.4,83.91,131.54,328.85,Unlimited,SBD,M,
Boys,74.84,DQ,Nathan Aaron,New Caney West Fork,70.76,129.27,,142.88,,Unlimited,SBD,M,
Boys,82.1,1,Chase Rhodes,Austin Westlake,80.65,322.05,183.7,297.1,802.86,Unlimited,SBD,M,
Boys,82.1,2,Nate Morris,Conroe,81.19,265.35,158.76,265.35,689.46,Unlimited,SBD,M,
Boys,82.1,3,Muiz Oluwole,Huntsville,82.1,222.26,145.15,215.46,582.87,Unlimited,SBD,M,
Boys,82.1,4,TraeShawn Brown,Huntsville,79.83,204.12,147.42,226.8,578.33,Unlimited,SBD,M,
Boys,82.1,5,Azi Jefferson,Conroe,80.29,188.24,136.08,226.8,551.11,Unlimited,SBD,M,
Boys,82.1,6,Max Lejsek,Magnolia,81.78,217.72,124.74,208.65,551.11,Unlimited,SBD,M,
Boys,82.1,7,Jace Chadwich,Magnolia,82.05,210.92,117.93,213.19,542.04,Unlimited,SBD,M,
Boys,82.1,8,Juan Garcia,Huntsville,79.83,204.12,124.74,183.7,512.56,Unlimited,SBD,M,
Boys,82.1,9,Peyton Eitel,Austin Westlake,75.3,183.7,122.47,190.51,496.68,Unlimited,SBD,M,
Boys,82.1,10,Patrick Pope,Magnolia,81.92,192.78,111.13,192.78,496.68,Unlimited,SBD,M,
Boys,82.1,11,Trent Oldham,Waller,77.56,174.63,117.93,183.7,476.27,Unlimited,SBD,M,
Boys,82.1,12,Luke Middlebrook,Montgomery Lake Creek,78.93,170.1,108.86,188.24,467.2,Unlimited,SBD,M,
Boys,82.1,13,Jayden King,Conroe Oak Ridge,79.38,149.69,92.99,219.99,462.66,Unlimited,SBD,M,
Boys,82.1,14,Nolan Carpenter,Montgomery Lake Creek,80.29,156.49,113.4,183.7,453.59,Unlimited,SBD,M,
Boys,82.1,15,Oscar Zelaya,Conroe,79.38,156.49,97.52,192.78,446.79,Unlimited,SBD,M,
Boys,82.1,16,Marcus Cherry,Magnolia,81.78,174.63,102.06,170.1,446.79,Unlimited,SBD,M,
Boys,82.1,17,Jackson Szanyi,Magnolia,75.57,165.56,108.86,170.1,444.52,Unlimited,SBD,M,
Boys,82.1,18,James Sweger,The Woodlands Christian Academy,81.65,179.17,88.45,176.9,444.52,Unlimited,SBD,M,
Boys,82.1,19,Justin Hardman,Waller,79.83,142.88,102.06,183.7,428.64,Unlimited,SBD,M,
Boys,82.1,20,AJ Moreno,Conroe Oak Ridge,80.74,201.85,140.61,,342.46,Unlimited,SB,M,
Boys,82.1,21,Andrew Martin,Conroe The Woodlands,80.74,108.86,65.77,120.2,294.84,Unlimited,SBD,M,
Boys,82.1,DQ,John Hallmark,Magnolia,81.83,183.7,,190.51,,Unlimited,SBD,M,
Boys,82.1,DQ,Blake Egeland,Austin Westlake,79.38,224.53,,,,Unlimited,SBD,M,
Boys,89.81,1,Ian Pippins-Moon,Magnolia,85.87,272.16,133.81,215.46,621.42,Unlimited,SBD,M,
Boys,89.81,2,Tanner Covar,Magnolia,88.36,226.8,124.74,242.67,594.21,Unlimited,SBD,M,
Boys,89.81,3,Tyler Cover,Magnolia,89.63,215.46,120.2,226.8,562.45,Unlimited,SBD,M,
Boys,89.81,4,Ryan Chim,Waller,83.91,204.12,151.95,190.51,546.58,Unlimited,SBD,M,
Boys,89.81,5,JaShon Witherspoon,New Caney West Fork,88,183.7,138.35,195.04,517.1,Unlimited,SBD,M,
Boys,89.81,6,Jc Lopez,The Woodlands Christian Academy,88,183.7,136.08,183.7,503.49,Unlimited,SBD,M,
Boys,89.81,7,El Grande Gunner,Waller,88,201.85,88.45,201.85,492.15,Unlimited,SBD,M,
Boys,89.81,8,Kyle Mercer,Magnolia West,86.18,201.85,122.47,165.56,489.88,Unlimited,SBD,M,
Boys,89.81,9,Mason Ford,Montgomery Lake Creek,88.9,190.51,147.42,147.42,485.34,Unlimited,SBD,M,
Boys,89.81,10,Lee Barney,Montgomery Lake Creek,87.09,183.7,108.86,190.51,483.08,Unlimited,SBD,M,
Boys,89.81,11,Owen Stephens,Montgomery Lake Creek,83.46,174.63,106.59,174.63,455.86,Unlimited,SBD,M,
Boys,89.81,12,Christian Ronning,Montgomery Lake Creek,83.91,158.76,102.06,170.1,430.91,Unlimited,SBD,M,
Boys,89.81,13,Luke Smith,Conroe The Woodlands,89.36,163.29,102.06,161.03,426.38,Unlimited,SBD,M,
Boys,99.79,1,Bryan Redd,Huntsville,91.17,272.16,226.8,231.33,730.28,Unlimited,SBD,M,
Boys,99.79,2,Lawson Mann,Montgomery Lake Creek,94.35,217.72,147.42,224.53,589.67,Unlimited,SBD,M,
Boys,99.79,3,Dylan Medina,Montgomery Lake Creek,98.43,226.8,158.76,204.12,589.67,Unlimited,SBD,M,
Boys,99.79,4,Jailen Baldwin,Huntsville,95.25,204.12,142.88,215.46,562.45,Unlimited,SBD,M,
Boys,99.79,5,Cooper Darce,Conroe The Woodlands,94.8,206.38,142.88,192.78,542.04,Unlimited,SBD,M,
Boys,99.79,6,Zack Moss,Huntsville,97.98,181.44,147.42,213.19,542.04,Unlimited,SBD,M,
Boys,99.79,7,Shiloh Jones,Huntsville,99.79,190.51,142.88,195.04,528.44,Unlimited,SBD,M,
Boys,99.79,8,Kayden Victorick,New Caney West Fork,95.25,174.63,120.2,192.78,487.61,Unlimited,SBD,M,
Boys,99.79,9,Seth Johnson,Huntsville,94.35,176.9,108.86,197.31,483.08,Unlimited,SBD,M,
Boys,99.79,10,Jerious Singletary,Huntsville,99.79,158.76,104.33,206.38,469.47,Unlimited,SBD,M,
Boys,99.79,11,Jayden Canady,Conroe Oak Ridge,97.52,165.56,124.74,167.83,458.13,Unlimited,SBD,M,
Boys,99.79,12,David Alvarez,Waller,90.26,165.56,111.13,174.63,451.32,Unlimited,SBD,M,
Boys,99.79,13,Brady Hollas,The Woodlands Christian Academy,92.53,174.63,111.13,165.56,451.32,Unlimited,SBD,M,
Boys,99.79,14,Alex Kahn,Austin Westlake,96.16,192.78,83.91,163.29,439.98,Unlimited,SBD,M,
Boys,99.79,DQ,Jakob Wetzel,Montgomery Lake Creek,92.99,183.7,,,,Unlimited,SBD,M,
Boys,109.77,1,Nick Perez,Conroe Oak Ridge,107.05,260.82,158.76,226.8,646.37,Unlimited,SBD,M,
Boys,109.77,2,Mikie Thompson,Conroe Oak Ridge,108.86,254.01,133.81,219.99,607.81,Unlimited,SBD,M,
Boys,109.77,3,Daniel Reynoso,Magnolia West,107.95,217.72,129.27,219.99,566.99,Unlimited,SBD,M,
Boys,109.77,4,Mauricio Adame,Magnolia West,102.97,188.24,115.67,219.99,523.9,Unlimited,SBD,M,
Boys,109.77,5,Taylor Winn,Conroe,108.41,201.85,138.35,183.7,523.9,Unlimited,SBD,M,
Boys,109.77,6,Jyree Jefferson,Conroe The Woodlands,108.86,197.31,113.4,176.9,487.61,Unlimited,SBD,M,
Boys,109.77,7,Eli Cruz,Huntsville,104.33,158.76,117.93,176.9,453.59,Unlimited,SBD,M,
Boys,109.77,8,Logan Martinez,Magnolia West,108.41,142.88,79.38,163.29,385.55,Unlimited,SBD,M,
Boys,109.77,DQ,Aaron Fletcher,Magnolia,109.45,,149.69,199.58,,Unlimited,SBD,M,
Boys,109.77,DQ,Colton Francis,Conroe Oak Ridge,102.97,226.8,,219.99,,Unlimited,SBD,M,
Boys,124.74,1,Brandon Mathis,Conroe,113.85,249.48,190.51,226.8,666.78,Unlimited,SBD,M,
Boys,124.74,2,Aiden Hime,Magnolia,124.33,226.8,158.76,249.48,635.03,Unlimited,SBD,M,
Boys,124.74,3,Connor Moomaw,Conroe The Woodlands,118.39,251.74,156.49,210.92,619.15,Unlimited,SBD,M,
Boys,124.74,4,Jaxon Sayers,Montgomery Lake Creek,122.47,219.99,161.03,226.8,607.81,Unlimited,SBD,M,
Boys,124.74,5,Alec Salazer,Magnolia,124.06,235.87,165.56,195.04,596.47,Unlimited,SBD,M,
Boys,124.74,6,Warren Ehler,Magnolia West,119.29,226.8,136.08,229.06,591.94,Unlimited,SBD,M,
Boys,124.74,7,Ben Thomas,Conroe The Woodlands,112.04,197.31,117.93,208.65,523.9,Unlimited,SBD,M,
Boys,124.74,8,Sam Ellis,Conroe The Woodlands,124.28,204.12,117.93,195.04,517.1,Unlimited,SBD,M,
Boys,124.74,9,James Wilson,Magnolia West,112.94,195.04,111.13,192.78,498.95,Unlimited,SBD,M,
Boys,124.74,10,Michael Lawson,New Caney West Fork,120.11,167.83,129.27,179.17,476.27,Unlimited,SBD,M,
Boys,124.74,11,Casey Murray,Conroe The Woodlands,118.39,167.83,77.11,183.7,428.64,Unlimited,SBD,M,
Boys,124.74,DQ,Tyler Linseisen,Waller,120.66,179.17,,,,Unlimited,SBD,M,
Boys,139.71,1,Josh Ashton,Conroe The Woodlands,128.82,235.87,151.95,201.85,589.67,Unlimited,SBD,M,
Boys,139.71,2,Wyatt Missledine,Magnolia,128.82,174.63,120.2,190.51,485.34,Unlimited,SBD,M,
Boys,139.71,DQ,Christian Cleveland,Magnolia,127.6,219.99,,188.24,,Unlimited,SBD,M,
Boys,139.71,DQ,Jacob Davis,Conroe Oak Ridge,129.27,238.14,136.08,,,Unlimited,SBD,M,
